%% DO NOT EDIT this file manually; it is automatically
%% generated from LSR http://lsr.di.unimi.it
%% Make any changes in LSR itself, or in Documentation/snippets/new/ ,
%% and then run scripts/auxiliar/makelsr.py
%%
%% This file is in the public domain.
\version "2.23.9"

\header {
  lsrtags = "editorial-annotations, fretted-strings"

  texidoc = "
Hammer-on and pull-off can be obtained using slurs.

"
  doctitle = "Hammer on and pull off"
} % begin verbatim

\new TabStaff {
  \relative c' {
    d4( e\2)
    a( g)
  }
}
